Proyecto Final
…
parameters = parameters_corazon

serie_paciente1 =serie_UCI_parameter(raw_data[[1]],parameters)
# paso parámetros y  apilo 
series_corazon = lapply(raw_data,FUN=function(x) serie_UCI_parameter(x,parameters_corazon)) %>% bind_rows()
series_higado = lapply(raw_data,FUN=function(x) serie_UCI_parameter(x,parameters_higado)) %>% bind_rows()
series_rinon = lapply(raw_data,FUN=function(x) serie_UCI_parameter(x,parameters_rinon)) %>% bind_rows()
series_sangre = lapply(raw_data,FUN=function(x) serie_UCI_parameter(x,parameters_sangre)) %>% bind_rows()
#series_pulmon = lapply(raw_data,FUN=function(x) serie_UCI_parameter(x,parameters_pulmon)) %>% bind_rows()

series_parameters = lapply(raw_data,FUN=function(x) serie_UCI_parameter(x,parameters)) %>% bind_rows()

4.2 En resumen tenemos

## # A tibble: 4,000 x 6
##    RecordID   Age Gender Height Weight ICUType
##       <dbl> <dbl>  <dbl>  <dbl>  <dbl>   <dbl>
##  1   132539    54      0    -1    -1         4
##  2   132540    76      1   175.   76         2
##  3   132541    44      0    -1    56.7       3
##  4   132543    68      1   180.   84.6       3
##  5   132545    88      0    -1    -1         3
##  6   132547    64      1   180.  114         1
##  7   132548    68      0   163.   87         3
##  8   132551    78      0   163.   48.4       3
##  9   132554    64      0    -1    60.7       3
## 10   132555    74      1   175.   66.1       2
## # ... with 3,990 more rows

## # A tibble: 1,033,025 x 4
##    Time_Minutes Parameter Value RecordID
##           <dbl> <chr>     <dbl>    <dbl>
##  1            7 HR           73   132539
##  2           37 HR           77   132539
##  3           97 HR           60   132539
##  4          157 HR           62   132539
##  5          217 HR           80   132539
##  6          277 HR           74   132539
##  7          337 HR           73   132539
##  8          457 HR           64   132539
##  9          517 HR           64   132539
## 10          577 HR           66   132539
## # ... with 1,033,015 more rows
…
