…
serie_UCI_parameter<-  function(paciente,parameters){
  paciente %>% arrange(Parameter,Time_Minutes) %>% filter(Parameter %in% parameters) %>% add_column(RecordID=paciente[1,3]$Value) 
  } 

##ejemplo
parameters=c("HR","RespRate","GCS")
serie_paciente1 =serie_UCI_parameter(raw_data[[1]],parameters)
serie_paciente1
```

```
## # A tibble: 92 x 4
##    Time_Minutes Parameter Value RecordID
##           <dbl> <chr>     <dbl>    <dbl>
##  1            7 GCS          15   132539
##  2          217 GCS          15   132539
##  3          457 GCS          15   132539
##  4          697 GCS          15   132539
##  5          937 GCS          15   132539
##  6         1177 GCS          15   132539
##  7         1417 GCS          15   132539
##  8         1657 GCS          15   132539
##  9         1897 GCS          14   132539
## 10         2137 GCS          15   132539
## # … with 82 more rows
```
…
