…
```r
class(data_paciente_132539)
```

```
## [1] "spec_tbl_df" "tbl_df"      "tbl"         "data.frame"
```

```r
head(data_paciente_132539,30)
```

```
## # A tibble: 30 x 3
##    Time   Parameter     Value
##    <time> <chr>         <dbl>
##  1 00'00" RecordID   132539  
##  2 00'00" Age            54  
##  3 00'00" Gender          0  
##  4 00'00" Height         -1  
##  5 00'00" ICUType         4  
##  6 00'00" Weight         -1  
##  7 00'07" GCS            15  
##  8 00'07" HR             73  
##  9 00'07" NIDiasABP      65  
## 10 00'07" NIMAP          92.3
## # … with 20 more rows
```
…
serie_UCI_parameter<-  function(paciente,parameters){
  paciente %>% arrange(Parameter,Time) %>% filter(Parameter %in% parameters) %>% add_column(RecordID=paciente[1,3]$Value) 
  } 

##ejemplo
parameters=c("HR","RespRate","GCS")
serie_paciente1 =serie_UCI_parameter(raw_data[[1]],parameters)
serie_paciente1
```

```
## # A tibble: 92 x 4
##    Time   Parameter Value RecordID
##    <time> <chr>     <dbl>    <dbl>
##  1 00'07" GCS          15   132539
##  2 03'37" GCS          15   132539
##  3 07'37" GCS          15   132539
##  4 11'37" GCS          15   132539
##  5 15'37" GCS          15   132539
##  6 19'37" GCS          15   132539
##  7 23'37" GCS          15   132539
##  8 27'37" GCS          15   132539
##  9 31'37" GCS          14   132539
## 10 35'37" GCS          15   132539
## # … with 82 more rows
```
…
